…
# Turn Household income in thousands, gender and edu_level to factors
BEV$Household_Income_Thousands <- as.factor(BEV$Household_Income_Thousands)
BEV$gender <- as.factor(BEV$gender)
BEV$edu_level <- as.factor(BEV$edu_level)
# Custom order for the edu_level factor
BEV$edu_level <- factor(BEV$edu_level, levels = c("Some High School", "High School Graduate", "College Graduate", "Masters, Doctorate, \nor Professional Degree"))
BEV
```

```
## # A tibble: 19,357 × 8
##    ID         Carmain               House…¹ impor…² edu_l…³ numbe…⁴ gender   Age
##    <chr>      <chr>                 <fct>     <dbl> <fct>     <dbl> <fct>  <dbl>
##  1 PHASE_1_54 2012 Nissan Leaf      500        2.63 "Maste…       3 Female    65
##  2 PHASE_1_48 2013 Toyota Prius Pl… <NA>       2.76 "Maste…       2 Male      65
##  3 PHASE_1_49 2013 Honda Fit EV     125       -2.97 "Colle…       3 Female    55
##  4 PHASE_1_52 2013 Toyota Prius Pl… <NA>      NA     <NA>         1 <NA>      NA
##  5 PHASE_1_57 2013 Nissan Leaf      325        2.87 "Maste…       5 Female    75
##  6 PHASE_1_58 2015 Ford Fusion Ene… 275        1.9  "Maste…       3 Female    45
##  7 PHASE_1_59 2014 Chevrolet Spark… 225        1.58 "Maste…       2 Female    55
##  8 PHASE_1_62 2013 Nissan Leaf      375        2.57 "Colle…       2 Female    45
##  9 PHASE_1_63 2014 Tesla Model S    225        2.33 "High …       2 Female    35
## 10 PHASE_1_64 2013 Tesla Model S    275        2.64 "Maste…       3 Female    75
## # … with 19,347 more rows, and abbreviated variable names
## #   ¹​Household_Income_Thousands, ²​importance_reduce_GGE, ³​edu_level,
## #   ⁴​number_vehicles_H
```
…
# CO2 Emissions tidy
CO2emissions_long <- CO2_emissions %>%
  select(-`Indicator Name`, -`Indicator Code`) %>%
  pivot_longer(!`Country Name`:`Country Code`, names_to = "year", values_to = "CO2_m_tons_per_cap", values_drop_na = TRUE)

# Join between GDP per Capita and CO2 Emissions tidy
GDP_CO2Emissions <- inner_join(GDP_long, CO2emissions_long, by = c("Country Name", "Country Code", "year")) %>%
  mutate(year = as.double(year))
GDP_CO2Emissions
```

```
## # A tibble: 6,937 × 5
##    `Country Name`              `Country Code`  year GDP_per_cap CO2_m_tons_per…¹
##    <chr>                       <chr>          <dbl>       <dbl>            <dbl>
##  1 Africa Eastern and Southern AFE             1990        817.            0.982
##  2 Africa Eastern and Southern AFE             1991        858.            0.938
##  3 Africa Eastern and Southern AFE             1992        729.            0.903
##  4 Africa Eastern and Southern AFE             1993        705.            0.905
##  5 Africa Eastern and Southern AFE             1994        697.            0.906
##  6 Africa Eastern and Southern AFE             1995        763.            0.926
##  7 Africa Eastern and Southern AFE             1996        739.            0.937
##  8 Africa Eastern and Southern AFE             1997        758.            0.958
##  9 Africa Eastern and Southern AFE             1998        696.            0.958
## 10 Africa Eastern and Southern AFE             1999        670.            0.897
## # … with 6,927 more rows, and abbreviated variable name ¹​CO2_m_tons_per_cap
```

```r
# Get country regions using ISO3166
code_region <- countries_ISO3166 %>%
  select(alpha.3, region)

# Join GDP per Capita and CO2 Emissions with the country regions
GDP_CO2Emissions_Regions <- right_join(code_region, GDP_CO2Emissions, by = c("alpha.3" = "Country Code")) %>%
  filter(region != is.na(region)) %>% tibble()
GDP_CO2Emissions_Regions
```

```
## # A tibble: 5,497 × 6
##    alpha.3 region `Country Name`  year GDP_per_cap CO2_m_tons_per_cap
##    <chr>   <chr>  <chr>          <dbl>       <dbl>              <dbl>
##  1 AFG     Asia   Afghanistan     2002        184.             0.0490
##  2 AFG     Asia   Afghanistan     2003        200.             0.0539
##  3 AFG     Asia   Afghanistan     2004        222.             0.0437
##  4 AFG     Asia   Afghanistan     2005        255.             0.0635
##  5 AFG     Asia   Afghanistan     2006        274.             0.0692
##  6 AFG     Asia   Afghanistan     2007        375.             0.0683
##  7 AFG     Asia   Afghanistan     2008        388.             0.135 
##  8 AFG     Asia   Afghanistan     2009        444.             0.178 
##  9 AFG     Asia   Afghanistan     2010        555.             0.252 
## 10 AFG     Asia   Afghanistan     2011        622.             0.305 
## # … with 5,487 more rows
```

```r
# Compute means for each region
Totals_GDP_CO2Emissions_Regions <- GDP_CO2Emissions_Regions %>%
  group_by(region, year) %>%
  summarise(mean_GDP_per_cap = mean(GDP_per_cap),
            mean_CO2_m_tons_per_cap = mean(CO2_m_tons_per_cap))
Totals_GDP_CO2Emissions_Regions
```

```
## # A tibble: 150 × 4
## # Groups:   region [5]
##    region  year mean_GDP_per_cap mean_CO2_m_tons_per_cap
##    <chr>  <dbl>            <dbl>                   <dbl>
##  1 Africa  1990            1098.                   0.819
##  2 Africa  1991            1119.                   0.830
##  3 Africa  1992            1112.                   0.841
##  4 Africa  1993            1057.                   0.859
##  5 Africa  1994             989.                   0.884
##  6 Africa  1995            1066.                   0.925
##  7 Africa  1996            1113.                   0.957
##  8 Africa  1997            1128.                   0.965
##  9 Africa  1998            1094.                   1.02 
## 10 Africa  1999            1145.                   1.07 
## # … with 140 more rows
```
…
